%YAML 1.1
%TAG !u! tag:unity3d.com,2011:
--- !u!1045 &1
EditorBuildSettings:
  m_ObjectHideFlags: 0
  serializedVersion: 2
  m_Scenes:
  - enabled: 1
    path: Assets/Scenes/ProfileSelection.unity
  - enabled: 1
    path: Assets/Scenes/menu.unity
  - enabled: 0
    path: Assets/Scenes/demo.unity
  - enabled: 1
    path: Assets/Scenes/Dungeon Generation.unity
  - enabled: 1
    path: Assets/Scenes/Death Scene.unity
