%YAML 1.1
%TAG !u! tag:unity3d.com,2011:
--- !u!74 &7400000
AnimationClip:
  m_ObjectHideFlags: 0
  m_PrefabParentObject: {fileID: 0}
  m_PrefabInternal: {fileID: 0}
  m_Name: meleeLeft1
  serializedVersion: 6
  m_Legacy: 0
  m_Compressed: 0
  m_UseHighQualityCurve: 1
  m_RotationCurves: []
  m_CompressedRotationCurves: []
  m_EulerCurves: []
  m_PositionCurves:
  - curve:
      serializedVersion: 2
      m_Curve:
      - time: 0
        value: {x: -0.5, y: 0, z: 0}
        inSlope: {x: -7.4999995, y: 0, z: 0}
        outSlope: {x: -7.4999995, y: 0, z: 0}
        tangentMode: 0
      - time: 0.06666667
        value: {x: -1, y: 0, z: 0}
        inSlope: {x: -11.249999, y: 0, z: 0}
        outSlope: {x: -11.249999, y: 0, z: 0}
        tangentMode: 0
      - time: 0.13333334
        value: {x: -2, y: 0, z: 0}
        inSlope: {x: -15, y: 0, z: 0}
        outSlope: {x: -15, y: 0, z: 0}
        tangentMode: 0
      - time: 0.2
        value: {x: -3, y: 0, z: 0}
        inSlope: {x: -14.999999, y: 0, z: 0}
        outSlope: {x: -14.999999, y: 0, z: 0}
        tangentMode: 0
      - time: 0.26666668
        value: {x: -4, y: 0, z: 0}
        inSlope: {x: -14.999997, y: 0, z: 0}
        outSlope: {x: -14.999997, y: 0, z: 0}
        tangentMode: 0
      m_PreInfinity: 2
      m_PostInfinity: 2
      m_RotationOrder: 4
    path: 
  m_ScaleCurves: []
  m_FloatCurves:
  - curve:
      serializedVersion: 2
      m_Curve:
      - time: 0
        value: 1
        inSlope: -1.2725
        outSlope: -1.2725
        tangentMode: 10
      - time: 0.4
        value: 0.491
        inSlope: -4.3187504
        outSlope: -4.3187504
        tangentMode: 10
      - time: 0.46666667
        value: 0
        inSlope: -7.3650002
        outSlope: -7.3650002
        tangentMode: 10
      m_PreInfinity: 2
      m_PostInfinity: 2
      m_RotationOrder: 4
    attribute: m_Color.a
    path: 
    classID: 212
    script: {fileID: 0}
  m_PPtrCurves:
  - curve:
    - time: 0
      value: {fileID: 21300006, guid: e077db0fb527bba4c9f878b4c9b032d3, type: 3}
    - time: 0.06666667
      value: {fileID: 21300006, guid: e077db0fb527bba4c9f878b4c9b032d3, type: 3}
    - time: 0.13333334
      value: {fileID: 21300000, guid: e077db0fb527bba4c9f878b4c9b032d3, type: 3}
    - time: 0.2
      value: {fileID: 21300002, guid: e077db0fb527bba4c9f878b4c9b032d3, type: 3}
    - time: 0.26666668
      value: {fileID: 21300004, guid: e077db0fb527bba4c9f878b4c9b032d3, type: 3}
    - time: 0.33333334
      value: {fileID: 21300004, guid: e077db0fb527bba4c9f878b4c9b032d3, type: 3}
    - time: 0.4
      value: {fileID: 21300004, guid: e077db0fb527bba4c9f878b4c9b032d3, type: 3}
    attribute: m_Sprite
    path: 
    classID: 212
    script: {fileID: 0}
  m_SampleRate: 15
  m_WrapMode: 0
  m_Bounds:
    m_Center: {x: 0, y: 0, z: 0}
    m_Extent: {x: 0, y: 0, z: 0}
  m_ClipBindingConstant:
    genericBindings:
    - path: 0
      attribute: 1
      script: {fileID: 0}
      classID: 4
      customType: 0
      isPPtrCurve: 0
    - path: 0
      attribute: 304273561
      script: {fileID: 0}
      classID: 212
      customType: 0
      isPPtrCurve: 0
    - path: 0
      attribute: 0
      script: {fileID: 0}
      classID: 212
      customType: 23
      isPPtrCurve: 1
    pptrCurveMapping:
    - {fileID: 21300006, guid: e077db0fb527bba4c9f878b4c9b032d3, type: 3}
    - {fileID: 21300006, guid: e077db0fb527bba4c9f878b4c9b032d3, type: 3}
    - {fileID: 21300000, guid: e077db0fb527bba4c9f878b4c9b032d3, type: 3}
    - {fileID: 21300002, guid: e077db0fb527bba4c9f878b4c9b032d3, type: 3}
    - {fileID: 21300004, guid: e077db0fb527bba4c9f878b4c9b032d3, type: 3}
    - {fileID: 21300004, guid: e077db0fb527bba4c9f878b4c9b032d3, type: 3}
    - {fileID: 21300004, guid: e077db0fb527bba4c9f878b4c9b032d3, type: 3}
  m_AnimationClipSettings:
    serializedVersion: 2
    m_AdditiveReferencePoseClip: {fileID: 0}
    m_AdditiveReferencePoseTime: 0
    m_StartTime: 0
    m_StopTime: 0.46666667
    m_OrientationOffsetY: 0
    m_Level: 0
    m_CycleOffset: 0
    m_HasAdditiveReferencePose: 0
    m_LoopTime: 0
    m_LoopBlend: 0
    m_LoopBlendOrientation: 0
    m_LoopBlendPositionY: 0
    m_LoopBlendPositionXZ: 0
    m_KeepOriginalOrientation: 0
    m_KeepOriginalPositionY: 1
    m_KeepOriginalPositionXZ: 0
    m_HeightFromFeet: 0
    m_Mirror: 0
  m_EditorCurves:
  - curve:
      serializedVersion: 2
      m_Curve:
      - time: 0
        value: -0.5
        inSlope: -7.4999995
        outSlope: -7.4999995
        tangentMode: 10
      - time: 0.06666667
        value: -1
        inSlope: -11.249999
        outSlope: -11.249999
        tangentMode: 10
      - time: 0.13333334
        value: -2
        inSlope: -15
        outSlope: -15
        tangentMode: 10
      - time: 0.2
        value: -3
        inSlope: -14.999999
        outSlope: -14.999999
        tangentMode: 10
      - time: 0.26666668
        value: -4
        inSlope: -14.999997
        outSlope: -14.999997
        tangentMode: 10
      m_PreInfinity: 2
      m_PostInfinity: 2
      m_RotationOrder: 4
    attribute: m_LocalPosition.x
    path: 
    classID: 4
    script: {fileID: 0}
  - curve:
      serializedVersion: 2
      m_Curve:
      - time: 0
        value: 0
        inSlope: 0
        outSlope: 0
        tangentMode: 10
      - time: 0.06666667
        value: 0
        inSlope: 0
        outSlope: 0
        tangentMode: 10
      - time: 0.13333334
        value: 0
        inSlope: 0
        outSlope: 0
        tangentMode: 10
      - time: 0.2
        value: 0
        inSlope: 0
        outSlope: 0
        tangentMode: 10
      - time: 0.26666668
        value: 0
        inSlope: 0
        outSlope: 0
        tangentMode: 10
      m_PreInfinity: 2
      m_PostInfinity: 2
      m_RotationOrder: 4
    attribute: m_LocalPosition.y
    path: 
    classID: 4
    script: {fileID: 0}
  - curve:
      serializedVersion: 2
      m_Curve:
      - time: 0
        value: 0
        inSlope: 0
        outSlope: 0
        tangentMode: 10
      - time: 0.06666667
        value: 0
        inSlope: 0
        outSlope: 0
        tangentMode: 10
      - time: 0.13333334
        value: 0
        inSlope: 0
        outSlope: 0
        tangentMode: 10
      - time: 0.2
        value: 0
        inSlope: 0
        outSlope: 0
        tangentMode: 10
      - time: 0.26666668
        value: 0
        inSlope: 0
        outSlope: 0
        tangentMode: 10
      m_PreInfinity: 2
      m_PostInfinity: 2
      m_RotationOrder: 4
    attribute: m_LocalPosition.z
    path: 
    classID: 4
    script: {fileID: 0}
  - curve:
      serializedVersion: 2
      m_Curve:
      - time: 0
        value: 1
        inSlope: -1.2725
        outSlope: -1.2725
        tangentMode: 10
      - time: 0.4
        value: 0.491
        inSlope: -4.3187504
        outSlope: -4.3187504
        tangentMode: 10
      - time: 0.46666667
        value: 0
        inSlope: -7.3650002
        outSlope: -7.3650002
        tangentMode: 10
      m_PreInfinity: 2
      m_PostInfinity: 2
      m_RotationOrder: 4
    attribute: m_Color.a
    path: 
    classID: 212
    script: {fileID: 0}
  m_EulerEditorCurves: []
  m_HasGenericRootTransform: 1
  m_HasMotionFloatCurves: 0
  m_GenerateMotionCurves: 0
  m_Events: []
