%YAML 1.1
%TAG !u! tag:unity3d.com,2011:
--- !u!1 &172354
GameObject:
  m_ObjectHideFlags: 0
  m_PrefabParentObject: {fileID: 0}
  m_PrefabInternal: {fileID: 100100000}
  serializedVersion: 4
  m_Component:
  - 4: {fileID: 476922}
  - 33: {fileID: 3383240}
  - 65: {fileID: 6519310}
  - 23: {fileID: 2397676}
  - 114: {fileID: 11411376}
  - 114: {fileID: 11444924}
  - 54: {fileID: 5460312}
  - 135: {fileID: 13561472}
  - 114: {fileID: 11444194}
  - 114: {fileID: 11427122}
  m_Layer: 21
  m_Name: item_130919382775586391_PFB
  m_TagString: Untagged
  m_Icon: {fileID: 0}
  m_NavMeshLayer: 0
  m_StaticEditorFlags: 0
  m_IsActive: 0
--- !u!4 &476922
Transform:
  m_ObjectHideFlags: 1
  m_PrefabParentObject: {fileID: 0}
  m_PrefabInternal: {fileID: 100100000}
  m_GameObject: {fileID: 172354}
  m_LocalRotation: {x: 0, y: 0, z: 0, w: 1}
  m_LocalPosition: {x: 0.7596147, y: 0.9733863, z: -1.7094555}
  m_LocalScale: {x: 1, y: 1, z: 1}
  m_Children: []
  m_Father: {fileID: 0}
  m_RootOrder: 0
--- !u!23 &2397676
MeshRenderer:
  m_ObjectHideFlags: 1
  m_PrefabParentObject: {fileID: 0}
  m_PrefabInternal: {fileID: 100100000}
  m_GameObject: {fileID: 172354}
  m_Enabled: 1
  m_CastShadows: 1
  m_ReceiveShadows: 1
  m_Materials:
  - {fileID: 2100000, guid: 3fb6e5ed389d79d4998d8ef7b4b2f84e, type: 2}
  m_SubsetIndices: 
  m_StaticBatchRoot: {fileID: 0}
  m_UseLightProbes: 1
  m_ReflectionProbeUsage: 1
  m_ProbeAnchor: {fileID: 0}
  m_ScaleInLightmap: 1
  m_PreserveUVs: 0
  m_IgnoreNormalsForChartDetection: 0
  m_ImportantGI: 0
  m_MinimumChartSize: 4
  m_AutoUVMaxDistance: 0.5
  m_AutoUVMaxAngle: 89
  m_LightmapParameters: {fileID: 0}
  m_SortingLayerID: 0
  m_SortingOrder: 0
--- !u!33 &3383240
MeshFilter:
  m_ObjectHideFlags: 1
  m_PrefabParentObject: {fileID: 0}
  m_PrefabInternal: {fileID: 100100000}
  m_GameObject: {fileID: 172354}
  m_Mesh: {fileID: 10202, guid: 0000000000000000e000000000000000, type: 0}
--- !u!54 &5460312
Rigidbody:
  m_ObjectHideFlags: 1
  m_PrefabParentObject: {fileID: 0}
  m_PrefabInternal: {fileID: 100100000}
  m_GameObject: {fileID: 172354}
  serializedVersion: 2
  m_Mass: 1
  m_Drag: 0
  m_AngularDrag: 0.05
  m_UseGravity: 1
  m_IsKinematic: 1
  m_Interpolate: 0
  m_Constraints: 0
  m_CollisionDetection: 0
--- !u!65 &6519310
BoxCollider:
  m_ObjectHideFlags: 1
  m_PrefabParentObject: {fileID: 0}
  m_PrefabInternal: {fileID: 100100000}
  m_GameObject: {fileID: 172354}
  m_Material: {fileID: 0}
  m_IsTrigger: 0
  m_Enabled: 1
  serializedVersion: 2
  m_Size: {x: 1, y: 1, z: 1}
  m_Center: {x: 0, y: 0, z: 0}
--- !u!114 &11411376
MonoBehaviour:
  m_ObjectHideFlags: 1
  m_PrefabParentObject: {fileID: 0}
  m_PrefabInternal: {fileID: 100100000}
  m_GameObject: {fileID: 172354}
  m_Enabled: 1
  m_EditorHideFlags: 0
  m_Script: {fileID: 11500000, guid: 7bd7d7a954facc14b8ebd8a432c5b0f8, type: 3}
  m_Name: 
  m_EditorClassIdentifier: 
  _name: 4d656469756d20626167286475706c696361746529
  _description: 41206d656469756d20626167
  _useCategoryCooldown: 1
  _icon: {fileID: 21300306, guid: bddecc020f6bf0445b97e3d1be62d39c, type: 3}
  _weight: 2
  _properties: []
  _usageRequirementProperties: []
  _buyPrice:
    _amount: 26
  _sellPrice:
    _amount: 16
  _isDroppable: 1
  _isSellable: 1
  _isStorable: 1
  _cooldownTime: 20
  playOnEquip:
    audioClip: {fileID: 8300000, guid: 10b5f41afe23d724e868d85fb7eae3d5, type: 3}
    volume: 1
    pitch: 1
--- !u!114 &11427122
MonoBehaviour:
  m_ObjectHideFlags: 1
  m_PrefabParentObject: {fileID: 0}
  m_PrefabInternal: {fileID: 100100000}
  m_GameObject: {fileID: 172354}
  m_Enabled: 1
  m_EditorHideFlags: 0
  m_Script: {fileID: 11500000, guid: 7bd7d7a954facc14b8ebd8a432c5b0f8, type: 3}
  m_Name: 
  m_EditorClassIdentifier: 
  _name: 4d656469756d20626167
  _description: 41206d656469756d20626167
  _useCategoryCooldown: 1
  _icon: {fileID: 21300306, guid: bddecc020f6bf0445b97e3d1be62d39c, type: 3}
  _weight: 2
  _properties: []
  _usageRequirementProperties: []
  _buyPrice:
    _amount: 0
  _sellPrice:
    _amount: 0
  _isDroppable: 1
  _isSellable: 1
  _isStorable: 1
  _cooldownTime: 0
  playOnEquip:
    audioClip: {fileID: 8300000, guid: 10b5f41afe23d724e868d85fb7eae3d5, type: 3}
    volume: 1
    pitch: 1
--- !u!114 &11444194
MonoBehaviour:
  m_ObjectHideFlags: 1
  m_PrefabParentObject: {fileID: 0}
  m_PrefabInternal: {fileID: 100100000}
  m_GameObject: {fileID: 172354}
  m_Enabled: 1
  m_EditorHideFlags: 0
  m_Script: {fileID: 11500000, guid: 7bd7d7a954facc14b8ebd8a432c5b0f8, type: 3}
  m_Name: 
  m_EditorClassIdentifier: 
  _name: 4d656469756d20626167286475706c696361746529
  _description: 41206d656469756d20626167
  _useCategoryCooldown: 1
  _icon: {fileID: 21300306, guid: bddecc020f6bf0445b97e3d1be62d39c, type: 3}
  _weight: 2
  _properties:
  - _propertyID: 4
    value: 33
    isFactor: 1
    actionEffect: 1
  _usageRequirementProperties: []
  _buyPrice:
    _amount: 26
  _sellPrice:
    _amount: 16
  _isDroppable: 1
  _isSellable: 1
  _isStorable: 1
  _cooldownTime: 20
  playOnEquip:
    audioClip: {fileID: 8300000, guid: 10b5f41afe23d724e868d85fb7eae3d5, type: 3}
    volume: 1
    pitch: 1
--- !u!114 &11444924
MonoBehaviour:
  m_ObjectHideFlags: 1
  m_PrefabParentObject: {fileID: 0}
  m_PrefabInternal: {fileID: 100100000}
  m_GameObject: {fileID: 172354}
  m_Enabled: 1
  m_EditorHideFlags: 0
  m_Script: {fileID: 11500000, guid: ba77e3e4ff91e1c408d6d8c5dd12ad13, type: 3}
  m_Name: 
  m_EditorClassIdentifier: 
--- !u!135 &13561472
SphereCollider:
  m_ObjectHideFlags: 1
  m_PrefabParentObject: {fileID: 0}
  m_PrefabInternal: {fileID: 100100000}
  m_GameObject: {fileID: 172354}
  m_Material: {fileID: 0}
  m_IsTrigger: 1
  m_Enabled: 1
  serializedVersion: 2
  m_Radius: 0.8
  m_Center: {x: 0, y: 0, z: 0}
--- !u!1001 &100100000
Prefab:
  m_ObjectHideFlags: 1
  serializedVersion: 2
  m_Modification:
    m_TransformParent: {fileID: 0}
    m_Modifications: []
    m_RemovedComponents: []
  m_ParentPrefab: {fileID: 0}
  m_RootGameObject: {fileID: 172354}
  m_IsPrefabParent: 1
