%YAML 1.1
%TAG !u! tag:unity3d.com,2011:
--- !u!1 &127992
GameObject:
  m_ObjectHideFlags: 0
  m_PrefabParentObject: {fileID: 0}
  m_PrefabInternal: {fileID: 100100000}
  serializedVersion: 4
  m_Component:
  - 4: {fileID: 451812}
  - 33: {fileID: 3394774}
  - 65: {fileID: 6569978}
  - 23: {fileID: 2320456}
  - 114: {fileID: 11458890}
  - 114: {fileID: 11454180}
  - 135: {fileID: 13539630}
  - 54: {fileID: 5476516}
  m_Layer: 21
  m_Name: Item_beard_#8_UMA_ItemDatabase_PFB
  m_TagString: Untagged
  m_Icon: {fileID: 0}
  m_NavMeshLayer: 0
  m_StaticEditorFlags: 0
  m_IsActive: 1
--- !u!4 &451812
Transform:
  m_ObjectHideFlags: 1
  m_PrefabParentObject: {fileID: 0}
  m_PrefabInternal: {fileID: 100100000}
  m_GameObject: {fileID: 127992}
  m_LocalRotation: {x: 0, y: 0, z: 0, w: 1}
  m_LocalPosition: {x: 0, y: 0, z: 0}
  m_LocalScale: {x: 1, y: 1, z: 1}
  m_Children: []
  m_Father: {fileID: 0}
  m_RootOrder: 0
--- !u!23 &2320456
MeshRenderer:
  m_ObjectHideFlags: 1
  m_PrefabParentObject: {fileID: 0}
  m_PrefabInternal: {fileID: 100100000}
  m_GameObject: {fileID: 127992}
  m_Enabled: 1
  m_CastShadows: 1
  m_ReceiveShadows: 1
  m_Materials:
  - {fileID: 10303, guid: 0000000000000000f000000000000000, type: 0}
  m_SubsetIndices: 
  m_StaticBatchRoot: {fileID: 0}
  m_UseLightProbes: 1
  m_ReflectionProbeUsage: 1
  m_ProbeAnchor: {fileID: 0}
  m_ScaleInLightmap: 1
  m_PreserveUVs: 1
  m_IgnoreNormalsForChartDetection: 0
  m_ImportantGI: 0
  m_MinimumChartSize: 4
  m_AutoUVMaxDistance: 0.5
  m_AutoUVMaxAngle: 89
  m_LightmapParameters: {fileID: 0}
  m_SortingLayerID: 0
  m_SortingOrder: 0
--- !u!33 &3394774
MeshFilter:
  m_ObjectHideFlags: 1
  m_PrefabParentObject: {fileID: 0}
  m_PrefabInternal: {fileID: 100100000}
  m_GameObject: {fileID: 127992}
  m_Mesh: {fileID: 10202, guid: 0000000000000000e000000000000000, type: 0}
--- !u!54 &5476516
Rigidbody:
  m_ObjectHideFlags: 1
  m_PrefabParentObject: {fileID: 0}
  m_PrefabInternal: {fileID: 100100000}
  m_GameObject: {fileID: 127992}
  serializedVersion: 2
  m_Mass: 1
  m_Drag: 0
  m_AngularDrag: 0.05
  m_UseGravity: 1
  m_IsKinematic: 0
  m_Interpolate: 0
  m_Constraints: 0
  m_CollisionDetection: 0
--- !u!65 &6569978
BoxCollider:
  m_ObjectHideFlags: 1
  m_PrefabParentObject: {fileID: 0}
  m_PrefabInternal: {fileID: 100100000}
  m_GameObject: {fileID: 127992}
  m_Material: {fileID: 0}
  m_IsTrigger: 0
  m_Enabled: 1
  serializedVersion: 2
  m_Size: {x: 1, y: 1, z: 1}
  m_Center: {x: 0, y: 0, z: 0}
--- !u!114 &11454180
MonoBehaviour:
  m_ObjectHideFlags: 1
  m_PrefabParentObject: {fileID: 0}
  m_PrefabInternal: {fileID: 100100000}
  m_GameObject: {fileID: 127992}
  m_Enabled: 1
  m_EditorHideFlags: 0
  m_Script: {fileID: 11500000, guid: ba77e3e4ff91e1c408d6d8c5dd12ad13, type: 3}
  m_Name: 
  m_EditorClassIdentifier: 
--- !u!114 &11458890
MonoBehaviour:
  m_ObjectHideFlags: 1
  m_PrefabParentObject: {fileID: 0}
  m_PrefabInternal: {fileID: 100100000}
  m_GameObject: {fileID: 127992}
  m_Enabled: 1
  m_EditorHideFlags: 0
  m_Script: {fileID: 11500000, guid: 312003f70ef6374469559db47c459029, type: 3}
  m_Name: 
  m_EditorClassIdentifier: 
  _name: 4265617264
  _description: 466162756c6f757320554d41204265617264
  _useCategoryCooldown: 1
  _overrideDropObjectPrefab: {fileID: 0}
  _icon: {fileID: 21300324, guid: bddecc020f6bf0445b97e3d1be62d39c, type: 3}
  _weight: 0
  _properties: []
  _usageRequirementProperties: []
  _buyPrice:
    _amount: 0
  _sellPrice:
    _amount: 0
  _isDroppable: 1
  _isSellable: 1
  _isStorable: 1
  _cooldownTime: 0
  _equipType: 0
  playOnEquip:
    audioClip: {fileID: 0}
    volume: 1
    pitch: 1
    loop: 0
  equipVisually: 0
  equipPosition: {x: 0, y: 0, z: 0}
  equipRotation: {x: 0, y: 0, z: 0, w: 0}
  equipSlotsData:
  - umaEquipSlot: {fileID: 11400000, guid: b87f90d7e86cc434cab9e488cadd51e2, type: 2}
    umaOverrideColor: 0
    umaOverlayColor:
      r: 1
      g: 0.8896551
      b: 0
      a: 1
    umaOverlayDataAsset: {fileID: 11400000, guid: 4b6c025c08e69404baf2433a28c625e2,
      type: 2}
    umaSlotDataAsset: {fileID: 0}
    umaReplaceSlot: {fileID: 0}
    umaReplacedSlot:
      asset: {fileID: 0}
      overlayScale: 0
      materialSample: {fileID: 0}
      slotName: 
      listID: 0
      meshRenderer: {fileID: 0}
      boneNameHashes: 
      umaBoneData: []
      animatedBones: []
      textureNameList: []
      slotDNA: {fileID: 0}
      subMeshIndex: 0
      slotGroup: 
      tags: []
    umaPrevReplacedSlot:
      asset: {fileID: 0}
      overlayScale: 0
      materialSample: {fileID: 0}
      slotName: 
      listID: 0
      meshRenderer: {fileID: 0}
      boneNameHashes: 
      umaBoneData: []
      animatedBones: []
      textureNameList: []
      slotDNA: {fileID: 0}
      subMeshIndex: 0
      slotGroup: 
      tags: []
  - umaEquipSlot: {fileID: 11400000, guid: b87f90d7e86cc434cab9e488cadd51e2, type: 2}
    umaOverrideColor: 0
    umaOverlayColor:
      r: 1
      g: 0.8896551
      b: 0
      a: 1
    umaOverlayDataAsset: {fileID: 11400000, guid: 12873a43dec33da4fae2ec82a229f68b,
      type: 2}
    umaSlotDataAsset: {fileID: 0}
    umaReplaceSlot: {fileID: 0}
    umaReplacedSlot:
      asset: {fileID: 0}
      overlayScale: 0
      materialSample: {fileID: 0}
      slotName: 
      listID: 0
      meshRenderer: {fileID: 0}
      boneNameHashes: 
      umaBoneData: []
      animatedBones: []
      textureNameList: []
      slotDNA: {fileID: 0}
      subMeshIndex: 0
      slotGroup: 
      tags: []
    umaPrevReplacedSlot:
      asset: {fileID: 0}
      overlayScale: 0
      materialSample: {fileID: 0}
      slotName: 
      listID: 0
      meshRenderer: {fileID: 0}
      boneNameHashes: 
      umaBoneData: []
      animatedBones: []
      textureNameList: []
      slotDNA: {fileID: 0}
      subMeshIndex: 0
      slotGroup: 
      tags: []
  - umaEquipSlot: {fileID: 11400000, guid: b87f90d7e86cc434cab9e488cadd51e2, type: 2}
    umaOverrideColor: 0
    umaOverlayColor:
      r: 1
      g: 0.8896551
      b: 0
      a: 1
    umaOverlayDataAsset: {fileID: 11400000, guid: b715831efec6548448a90d261e22f74c,
      type: 2}
    umaSlotDataAsset: {fileID: 0}
    umaReplaceSlot: {fileID: 0}
    umaReplacedSlot:
      asset: {fileID: 0}
      overlayScale: 0
      materialSample: {fileID: 0}
      slotName: 
      listID: 0
      meshRenderer: {fileID: 0}
      boneNameHashes: 
      umaBoneData: []
      animatedBones: []
      textureNameList: []
      slotDNA: {fileID: 0}
      subMeshIndex: 0
      slotGroup: 
      tags: []
    umaPrevReplacedSlot:
      asset: {fileID: 0}
      overlayScale: 0
      materialSample: {fileID: 0}
      slotName: 
      listID: 0
      meshRenderer: {fileID: 0}
      boneNameHashes: 
      umaBoneData: []
      animatedBones: []
      textureNameList: []
      slotDNA: {fileID: 0}
      subMeshIndex: 0
      slotGroup: 
      tags: []
--- !u!135 &13539630
SphereCollider:
  m_ObjectHideFlags: 1
  m_PrefabParentObject: {fileID: 0}
  m_PrefabInternal: {fileID: 100100000}
  m_GameObject: {fileID: 127992}
  m_Material: {fileID: 0}
  m_IsTrigger: 1
  m_Enabled: 1
  serializedVersion: 2
  m_Radius: 0.5
  m_Center: {x: 0, y: 0, z: 0}
--- !u!1001 &100100000
Prefab:
  m_ObjectHideFlags: 1
  serializedVersion: 2
  m_Modification:
    m_TransformParent: {fileID: 0}
    m_Modifications:
    - target: {fileID: 0}
      propertyPath: _properties.Array.size
      value: 0
      objectReference: {fileID: 0}
    - target: {fileID: 0}
      propertyPath: equipSlotsData.Array.size
      value: 3
      objectReference: {fileID: 0}
    - target: {fileID: 0}
      propertyPath: _name
      value: Beard
      objectReference: {fileID: 0}
    - target: {fileID: 0}
      propertyPath: _description
      value: Fabulous UMA Beard
      objectReference: {fileID: 0}
    - target: {fileID: 0}
      propertyPath: _icon
      value: 
      objectReference: {fileID: 21300324, guid: bddecc020f6bf0445b97e3d1be62d39c,
        type: 3}
    - target: {fileID: 0}
      propertyPath: _equipType
      value: 0
      objectReference: {fileID: 0}
    - target: {fileID: 0}
      propertyPath: equipVisually
      value: 0
      objectReference: {fileID: 0}
    - target: {fileID: 0}
      propertyPath: playOnEquip
      value: 
      objectReference: {fileID: 8300000, guid: 10b5f41afe23d724e868d85fb7eae3d5, type: 3}
    - target: {fileID: 0}
      propertyPath: umaSlotName
      value: MaleFace
      objectReference: {fileID: 0}
    - target: {fileID: 0}
      propertyPath: _overlayDataAsset
      value: 
      objectReference: {fileID: 11400000, guid: 12873a43dec33da4fae2ec82a229f68b,
        type: 2}
    - target: {fileID: 0}
      propertyPath: umaEquipSlot
      value: 
      objectReference: {fileID: 11400000, guid: b87f90d7e86cc434cab9e488cadd51e2,
        type: 2}
    - target: {fileID: 0}
      propertyPath: umaOverlayDataAsset
      value: 
      objectReference: {fileID: 11400000, guid: 4b6c025c08e69404baf2433a28c625e2,
        type: 2}
    - target: {fileID: 0}
      propertyPath: equipSlotsData.Array.data[0].umaEquipSlot
      value: 
      objectReference: {fileID: 11400000, guid: b87f90d7e86cc434cab9e488cadd51e2,
        type: 2}
    - target: {fileID: 0}
      propertyPath: equipSlotsData.Array.data[0].umaOverrideColor
      value: 0
      objectReference: {fileID: 0}
    - target: {fileID: 0}
      propertyPath: equipSlotsData.Array.data[0].umaOverlayColor.r
      value: 1
      objectReference: {fileID: 0}
    - target: {fileID: 0}
      propertyPath: equipSlotsData.Array.data[0].umaOverlayColor.g
      value: .889655113
      objectReference: {fileID: 0}
    - target: {fileID: 0}
      propertyPath: equipSlotsData.Array.data[0].umaOverlayColor.b
      value: 0
      objectReference: {fileID: 0}
    - target: {fileID: 0}
      propertyPath: equipSlotsData.Array.data[0].umaOverlayColor.a
      value: 1
      objectReference: {fileID: 0}
    - target: {fileID: 0}
      propertyPath: equipSlotsData.Array.data[0].umaOverlayDataAsset
      value: 
      objectReference: {fileID: 11400000, guid: 4b6c025c08e69404baf2433a28c625e2,
        type: 2}
    - target: {fileID: 0}
      propertyPath: equipSlotsData.Array.data[1].umaOverlayDataAsset
      value: 
      objectReference: {fileID: 11400000, guid: 12873a43dec33da4fae2ec82a229f68b,
        type: 2}
    - target: {fileID: 0}
      propertyPath: equipSlotsData.Array.data[0].umaSlotDataAsset
      value: 
      objectReference: {fileID: 0}
    - target: {fileID: 0}
      propertyPath: equipSlotsData.Array.data[1].umaSlotDataAsset
      value: 
      objectReference: {fileID: 0}
    - target: {fileID: 0}
      propertyPath: equipSlotsData.Array.data[2].umaOverlayDataAsset
      value: 
      objectReference: {fileID: 11400000, guid: b715831efec6548448a90d261e22f74c,
        type: 2}
    - target: {fileID: 0}
      propertyPath: _properties.Array.data[0].name
      value: Strength
      objectReference: {fileID: 0}
    - target: {fileID: 0}
      propertyPath: _properties.Array.data[0].category
      value: Default
      objectReference: {fileID: 0}
    - target: {fileID: 0}
      propertyPath: _properties.Array.data[0].showInUI
      value: 1
      objectReference: {fileID: 0}
    - target: {fileID: 0}
      propertyPath: _properties.Array.data[0].valueStringFormat
      value: '{0}'
      objectReference: {fileID: 0}
    - target: {fileID: 0}
      propertyPath: _properties.Array.data[0].useInStats
      value: 1
      objectReference: {fileID: 0}
    - target: {fileID: 0}
      propertyPath: _properties.Array.data[0].color.r
      value: 1
      objectReference: {fileID: 0}
    - target: {fileID: 0}
      propertyPath: _properties.Array.data[0].color.g
      value: 1
      objectReference: {fileID: 0}
    - target: {fileID: 0}
      propertyPath: _properties.Array.data[0].color.b
      value: 1
      objectReference: {fileID: 0}
    - target: {fileID: 0}
      propertyPath: _properties.Array.data[0].color.a
      value: 1
      objectReference: {fileID: 0}
    - target: {fileID: 0}
      propertyPath: _properties.Array.data[0].baseValue
      value: 5
      objectReference: {fileID: 0}
    - target: {fileID: 0}
      propertyPath: _properties.Array.data[0].maxValue
      value: 100
      objectReference: {fileID: 0}
    - target: {fileID: 0}
      propertyPath: _properties.Array.data[0].actionEffect
      value: 1
      objectReference: {fileID: 0}
    m_RemovedComponents: []
  m_ParentPrefab: {fileID: 0}
  m_RootGameObject: {fileID: 127992}
  m_IsPrefabParent: 1
